%YAML 1.1
%TAG !u! tag:unity3d.com,2011:
--- !u!114 &11400000
MonoBehaviour:
  m_ObjectHideFlags: 0
  m_CorrespondingSourceObject: {fileID: 0}
  m_PrefabInstance: {fileID: 0}
  m_PrefabAsset: {fileID: 0}
  m_GameObject: {fileID: 0}
  m_Enabled: 1
  m_EditorHideFlags: 0
  m_Script: {fileID: 11500000, guid: e021c5c27274514469ad2992883d55db, type: 3}
  m_Name: Graph Controller
  m_EditorClassIdentifier: 
  DebugMode: 0
  m_nodes:
  - {fileID: 6908537313345535955}
  - {fileID: 8596126734667067420}
  - {fileID: 3335961333332936282}
  - {fileID: 6704557930313352403}
  m_isSubGraph: 0
  m_version: 1
  m_description: 
  m_id: 487b891f-3906-45b9-b3a9-7a2d0ecd2914
  m_lastModified: 132484311161997011
--- !u!114 &3335961333332936282
MonoBehaviour:
  m_ObjectHideFlags: 1
  m_CorrespondingSourceObject: {fileID: 0}
  m_PrefabInstance: {fileID: 0}
  m_PrefabAsset: {fileID: 0}
  m_GameObject: {fileID: 0}
  m_Enabled: 1
  m_EditorHideFlags: 0
  m_Script: {fileID: 11500000, guid: 840a439e06374673a9115ed02deb5a54, type: 3}
  m_Name: UINode
  m_EditorClassIdentifier: 
  ErrorNodeNameIsEmpty: 0
  ErrorDuplicateNameFoundInGraph: 0
  m_inputSockets:
  - m_connectionMode: 1
    m_connections:
    - m_inputConnectionPoint: {x: -2, y: 4}
      m_outputConnectionPoint: {x: 202, y: 4}
      m_id: f1a25d0b-fb3a-49bd-b51c-a4ab7ae4b414
      m_inputNodeId: 13ddb4f9-d590-4093-98fc-ff5d1685fa2a
      m_inputSocketId: e7a6a8f0-991e-4f58-b4b4-318cfb49bff1
      m_outputNodeId: 524402eb-1768-4a43-bc99-b602239fdd78
      m_outputSocketId: 54d0bdcf-ec34-4979-8757-e92ac9ee1c98
    m_connectionPoints:
    - {x: -2, y: 4}
    - {x: 202, y: 4}
    m_direction: 0
    m_canBeDeleted: 0
    m_canBeReordered: 0
    m_curveModifier: 0
    m_height: 24
    m_width: 216
    m_x: 0
    m_y: 38
    m_id: e7a6a8f0-991e-4f58-b4b4-318cfb49bff1
    m_nodeId: 13ddb4f9-d590-4093-98fc-ff5d1685fa2a
    m_socketName: InputSocket_0
    m_value: '{"ButtonCategory":"General","ButtonName":"Unnamed","GameEvent":"","TimeDelay":3.0,"Trigger":0}'
    m_valueTypeQualifiedName: Doozy.Engine.UI.Connections.UIConnection, Assembly-CSharp-firstpass,
      Version=0.0.0.0, Culture=neutral, PublicKeyToken=null
  m_outputSockets:
  - m_connectionMode: 0
    m_connections: []
    m_connectionPoints:
    - {x: -2, y: 4}
    - {x: 202, y: 4}
    m_direction: 1
    m_canBeDeleted: 1
    m_canBeReordered: 1
    m_curveModifier: 0
    m_height: 24
    m_width: 216
    m_x: 0
    m_y: 62
    m_id: 6d160eb2-bcbd-43c7-a63f-bfef4dcb81fa
    m_nodeId: 13ddb4f9-d590-4093-98fc-ff5d1685fa2a
    m_socketName: OutputSocket_0
    m_value: '{"ButtonCategory":"General","ButtonName":"Back","GameEvent":"","TimeDelay":3.0,"Trigger":0}'
    m_valueTypeQualifiedName: Doozy.Engine.UI.Connections.UIConnection, Assembly-CSharp-firstpass,
      Version=0.0.0.0, Culture=neutral, PublicKeyToken=null
  m_nodeType: 4
  m_allowDuplicateNodeName: 0
  m_allowEmptyNodeName: 0
  m_canBeDeleted: 1
  m_debugMode: 0
  m_useFixedUpdate: 0
  m_useLateUpdate: 0
  m_useUpdate: 0
  m_height: 128
  m_width: 216
  m_x: 540
  m_y: 0
  m_minimumInputSocketsCount: 1
  m_minimumOutputSocketsCount: 1
  m_graphId: 487b891f-3906-45b9-b3a9-7a2d0ecd2914
  m_id: 13ddb4f9-d590-4093-98fc-ff5d1685fa2a
  m_name: Game
  m_notes: 
  m_onEnterShowViews:
  - Category: Game
    InstantAction: 0
    Name: Root
  m_onEnterHideViews: []
  m_onExitShowViews: []
  m_onExitHideViews:
  - Category: Lobby
    InstantAction: 0
    Name: Root
--- !u!114 &6704557930313352403
MonoBehaviour:
  m_ObjectHideFlags: 1
  m_CorrespondingSourceObject: {fileID: 0}
  m_PrefabInstance: {fileID: 0}
  m_PrefabAsset: {fileID: 0}
  m_GameObject: {fileID: 0}
  m_Enabled: 1
  m_EditorHideFlags: 0
  m_Script: {fileID: 11500000, guid: 840a439e06374673a9115ed02deb5a54, type: 3}
  m_Name: UINode
  m_EditorClassIdentifier: 
  ErrorNodeNameIsEmpty: 0
  ErrorDuplicateNameFoundInGraph: 0
  m_inputSockets:
  - m_connectionMode: 1
    m_connections:
    - m_inputConnectionPoint: {x: -2, y: 4}
      m_outputConnectionPoint: {x: 202, y: 4}
      m_id: 83962a86-eeee-4638-8b56-05c61e62934e
      m_inputNodeId: 2321a991-4dba-42d0-9a48-1d927d2c009d
      m_inputSocketId: e3c07e44-a3c8-4aae-9620-6df0bbc36211
      m_outputNodeId: 524402eb-1768-4a43-bc99-b602239fdd78
      m_outputSocketId: a2becf48-da5e-4375-853e-a8feaf7d051c
    m_connectionPoints:
    - {x: -2, y: 4}
    - {x: 202, y: 4}
    m_direction: 0
    m_canBeDeleted: 0
    m_canBeReordered: 0
    m_curveModifier: 0
    m_height: 24
    m_width: 216
    m_x: 0
    m_y: 38
    m_id: e3c07e44-a3c8-4aae-9620-6df0bbc36211
    m_nodeId: 2321a991-4dba-42d0-9a48-1d927d2c009d
    m_socketName: InputSocket_0
    m_value: '{"ButtonCategory":"General","ButtonName":"Unnamed","GameEvent":"","TimeDelay":3.0,"Trigger":0}'
    m_valueTypeQualifiedName: Doozy.Engine.UI.Connections.UIConnection, Assembly-CSharp-firstpass,
      Version=0.0.0.0, Culture=neutral, PublicKeyToken=null
  m_outputSockets:
  - m_connectionMode: 0
    m_connections:
    - m_inputConnectionPoint: {x: 202, y: 4}
      m_outputConnectionPoint: {x: -2, y: 4}
      m_id: 0d71337d-6f0b-4130-a0e4-474910142af4
      m_inputNodeId: 524402eb-1768-4a43-bc99-b602239fdd78
      m_inputSocketId: b2e9025b-f02d-4b28-a89a-824790d5ab5e
      m_outputNodeId: 2321a991-4dba-42d0-9a48-1d927d2c009d
      m_outputSocketId: 0579b664-c75c-4179-a567-fc04ca7614b9
    m_connectionPoints:
    - {x: -2, y: 4}
    - {x: 202, y: 4}
    m_direction: 1
    m_canBeDeleted: 1
    m_canBeReordered: 1
    m_curveModifier: 0
    m_height: 24
    m_width: 216
    m_x: 0
    m_y: 62
    m_id: 0579b664-c75c-4179-a567-fc04ca7614b9
    m_nodeId: 2321a991-4dba-42d0-9a48-1d927d2c009d
    m_socketName: OutputSocket_0
    m_value: '{"ButtonCategory":"Settings","ButtonName":"Back","GameEvent":"","TimeDelay":3.0,"Trigger":0}'
    m_valueTypeQualifiedName: Doozy.Engine.UI.Connections.UIConnection, Assembly-CSharp-firstpass,
      Version=0.0.0.0, Culture=neutral, PublicKeyToken=null
  m_nodeType: 4
  m_allowDuplicateNodeName: 0
  m_allowEmptyNodeName: 0
  m_canBeDeleted: 1
  m_debugMode: 0
  m_useFixedUpdate: 0
  m_useLateUpdate: 0
  m_useUpdate: 0
  m_height: 128
  m_width: 216
  m_x: 528
  m_y: 180
  m_minimumInputSocketsCount: 1
  m_minimumOutputSocketsCount: 1
  m_graphId: 487b891f-3906-45b9-b3a9-7a2d0ecd2914
  m_id: 2321a991-4dba-42d0-9a48-1d927d2c009d
  m_name: Settings
  m_notes: 
  m_onEnterShowViews:
  - Category: Settings
    InstantAction: 0
    Name: Root
  m_onEnterHideViews: []
  m_onExitShowViews: []
  m_onExitHideViews:
  - Category: Settings
    InstantAction: 0
    Name: Root
--- !u!114 &6908537313345535955
MonoBehaviour:
  m_ObjectHideFlags: 1
  m_CorrespondingSourceObject: {fileID: 0}
  m_PrefabInstance: {fileID: 0}
  m_PrefabAsset: {fileID: 0}
  m_GameObject: {fileID: 0}
  m_Enabled: 1
  m_EditorHideFlags: 0
  m_Script: {fileID: 11500000, guid: d57ed238b12b4e09aba0c83117a55de7, type: 3}
  m_Name: StartNode
  m_EditorClassIdentifier: 
  ErrorNodeNameIsEmpty: 0
  ErrorDuplicateNameFoundInGraph: 0
  m_inputSockets: []
  m_outputSockets:
  - m_connectionMode: 0
    m_connections:
    - m_inputConnectionPoint: {x: -2, y: 4}
      m_outputConnectionPoint: {x: 106, y: 4}
      m_id: 960698a0-e0a6-4aee-b9c7-8bf85a7c8af7
      m_inputNodeId: 524402eb-1768-4a43-bc99-b602239fdd78
      m_inputSocketId: b2e9025b-f02d-4b28-a89a-824790d5ab5e
      m_outputNodeId: fc734b9d-1fdd-467a-b00d-f56e9656f649
      m_outputSocketId: 1d4b989e-ab80-477b-9e54-18cbe46a8c36
    m_connectionPoints:
    - {x: -2, y: 4}
    - {x: 106, y: 4}
    m_direction: 1
    m_canBeDeleted: 0
    m_canBeReordered: 0
    m_curveModifier: 0
    m_height: 24
    m_width: 120
    m_x: 0
    m_y: 38
    m_id: 1d4b989e-ab80-477b-9e54-18cbe46a8c36
    m_nodeId: fc734b9d-1fdd-467a-b00d-f56e9656f649
    m_socketName: OutputSocket_0
    m_value: '{"ButtonCategory":"General","ButtonName":"Unnamed","GameEvent":"","TimeDelay":3.0,"Trigger":0}'
    m_valueTypeQualifiedName: Doozy.Engine.UI.Connections.UIConnection, Assembly-CSharp-firstpass,
      Version=0.0.0.0, Culture=neutral, PublicKeyToken=null
  m_nodeType: 0
  m_allowDuplicateNodeName: 0
  m_allowEmptyNodeName: 0
  m_canBeDeleted: 0
  m_debugMode: 0
  m_useFixedUpdate: 0
  m_useLateUpdate: 0
  m_useUpdate: 0
  m_height: 80
  m_width: 120
  m_x: -60
  m_y: -12
  m_minimumInputSocketsCount: 1
  m_minimumOutputSocketsCount: 1
  m_graphId: 487b891f-3906-45b9-b3a9-7a2d0ecd2914
  m_id: fc734b9d-1fdd-467a-b00d-f56e9656f649
  m_name: Start
  m_notes: 
  ErrorNodeIsNotConnected: 0
--- !u!114 &8596126734667067420
MonoBehaviour:
  m_ObjectHideFlags: 1
  m_CorrespondingSourceObject: {fileID: 0}
  m_PrefabInstance: {fileID: 0}
  m_PrefabAsset: {fileID: 0}
  m_GameObject: {fileID: 0}
  m_Enabled: 1
  m_EditorHideFlags: 0
  m_Script: {fileID: 11500000, guid: 840a439e06374673a9115ed02deb5a54, type: 3}
  m_Name: UINode
  m_EditorClassIdentifier: 
  ErrorNodeNameIsEmpty: 0
  ErrorDuplicateNameFoundInGraph: 0
  m_inputSockets:
  - m_connectionMode: 1
    m_connections:
    - m_inputConnectionPoint: {x: -2, y: 4}
      m_outputConnectionPoint: {x: 106, y: 4}
      m_id: 960698a0-e0a6-4aee-b9c7-8bf85a7c8af7
      m_inputNodeId: 524402eb-1768-4a43-bc99-b602239fdd78
      m_inputSocketId: b2e9025b-f02d-4b28-a89a-824790d5ab5e
      m_outputNodeId: fc734b9d-1fdd-467a-b00d-f56e9656f649
      m_outputSocketId: 1d4b989e-ab80-477b-9e54-18cbe46a8c36
    - m_inputConnectionPoint: {x: 202, y: 4}
      m_outputConnectionPoint: {x: -2, y: 4}
      m_id: 0d71337d-6f0b-4130-a0e4-474910142af4
      m_inputNodeId: 524402eb-1768-4a43-bc99-b602239fdd78
      m_inputSocketId: b2e9025b-f02d-4b28-a89a-824790d5ab5e
      m_outputNodeId: 2321a991-4dba-42d0-9a48-1d927d2c009d
      m_outputSocketId: 0579b664-c75c-4179-a567-fc04ca7614b9
    m_connectionPoints:
    - {x: -2, y: 4}
    - {x: 202, y: 4}
    m_direction: 0
    m_canBeDeleted: 0
    m_canBeReordered: 0
    m_curveModifier: 0
    m_height: 24
    m_width: 216
    m_x: 0
    m_y: 38
    m_id: b2e9025b-f02d-4b28-a89a-824790d5ab5e
    m_nodeId: 524402eb-1768-4a43-bc99-b602239fdd78
    m_socketName: InputSocket_0
    m_value: '{"ButtonCategory":"General","ButtonName":"Unnamed","GameEvent":"","TimeDelay":3.0,"Trigger":0}'
    m_valueTypeQualifiedName: Doozy.Engine.UI.Connections.UIConnection, Assembly-CSharp-firstpass,
      Version=0.0.0.0, Culture=neutral, PublicKeyToken=null
  m_outputSockets:
  - m_connectionMode: 0
    m_connections:
    - m_inputConnectionPoint: {x: -2, y: 4}
      m_outputConnectionPoint: {x: 202, y: 4}
      m_id: f1a25d0b-fb3a-49bd-b51c-a4ab7ae4b414
      m_inputNodeId: 13ddb4f9-d590-4093-98fc-ff5d1685fa2a
      m_inputSocketId: e7a6a8f0-991e-4f58-b4b4-318cfb49bff1
      m_outputNodeId: 524402eb-1768-4a43-bc99-b602239fdd78
      m_outputSocketId: 54d0bdcf-ec34-4979-8757-e92ac9ee1c98
    m_connectionPoints:
    - {x: -2, y: 4}
    - {x: 202, y: 4}
    m_direction: 1
    m_canBeDeleted: 1
    m_canBeReordered: 1
    m_curveModifier: 0
    m_height: 24
    m_width: 216
    m_x: 0
    m_y: 62
    m_id: 54d0bdcf-ec34-4979-8757-e92ac9ee1c98
    m_nodeId: 524402eb-1768-4a43-bc99-b602239fdd78
    m_socketName: OutputSocket_0
    m_value: '{"ButtonCategory":"Lobby","ButtonName":"Play","GameEvent":"","TimeDelay":3.0,"Trigger":0}'
    m_valueTypeQualifiedName: Doozy.Engine.UI.Connections.UIConnection, Assembly-CSharp-firstpass,
      Version=0.0.0.0, Culture=neutral, PublicKeyToken=null
  - m_connectionMode: 0
    m_connections:
    - m_inputConnectionPoint: {x: -2, y: 4}
      m_outputConnectionPoint: {x: 202, y: 4}
      m_id: 83962a86-eeee-4638-8b56-05c61e62934e
      m_inputNodeId: 2321a991-4dba-42d0-9a48-1d927d2c009d
      m_inputSocketId: e3c07e44-a3c8-4aae-9620-6df0bbc36211
      m_outputNodeId: 524402eb-1768-4a43-bc99-b602239fdd78
      m_outputSocketId: a2becf48-da5e-4375-853e-a8feaf7d051c
    m_connectionPoints:
    - {x: -2, y: 4}
    - {x: 202, y: 4}
    m_direction: 1
    m_canBeDeleted: 1
    m_canBeReordered: 1
    m_curveModifier: 0
    m_height: 24
    m_width: 216
    m_x: 0
    m_y: 86
    m_id: a2becf48-da5e-4375-853e-a8feaf7d051c
    m_nodeId: 524402eb-1768-4a43-bc99-b602239fdd78
    m_socketName: OutputSocket_1
    m_value: '{"ButtonCategory":"Lobby","ButtonName":"Settings","GameEvent":"","TimeDelay":3.0,"Trigger":0}'
    m_valueTypeQualifiedName: Doozy.Engine.UI.Connections.UIConnection, Assembly-CSharp-firstpass,
      Version=0.0.0.0, Culture=neutral, PublicKeyToken=null
  m_nodeType: 4
  m_allowDuplicateNodeName: 0
  m_allowEmptyNodeName: 0
  m_canBeDeleted: 1
  m_debugMode: 0
  m_useFixedUpdate: 0
  m_useLateUpdate: 0
  m_useUpdate: 0
  m_height: 152
  m_width: 216
  m_x: 168
  m_y: -12
  m_minimumInputSocketsCount: 1
  m_minimumOutputSocketsCount: 1
  m_graphId: 487b891f-3906-45b9-b3a9-7a2d0ecd2914
  m_id: 524402eb-1768-4a43-bc99-b602239fdd78
  m_name: Lobby
  m_notes: 
  m_onEnterShowViews:
  - Category: Lobby
    InstantAction: 0
    Name: Root
  m_onEnterHideViews: []
  m_onExitShowViews: []
  m_onExitHideViews:
  - Category: Lobby
    InstantAction: 0
    Name: Root
